@startuml

:User:
:Admin:

(Log in)
(Register)
(Create movie)
(Update movie)
(Delete movie)
(Create genre)
(Update genre)
(Delete genre)
(Change password)
(Categorize movie in genre)
(View movies)
(Search in movie catalogue)
(Rate movie)
(Update rating)
(Delete rating)
(Get recommended movies)
(Get best movies in genre)

User <|-down- Admin


User -right-> (Log in)
User -down-> (Register)
User -left-> (Get recommended movies)
User -up-> (Get best movies in genre)
User -up--> (View movies)
User -up--> (Rate movie)
User -up--> (Update rating)
User -up-> (Delete rating)
User -down-> (Search in movie catalogue)
User --> (Change password)

Admin --> (Create movie)
Admin --> (Update movie)
Admin --> (Delete movie)
Admin --> (Create genre)
Admin --> (Update genre)
Admin --> (Delete genre)
Admin --> (Categorize movie in genre)
@enduml